Library\Bee\artifacts\mvdfrm\Unity.Services.Core.Internal.ref.dll_A02B3542C15F550A.mvfrm
Library\Bee\artifacts\mvdfrm\Unity.Services.Core.ref.dll_131AC9C5EC6E6517.mvfrm
Library\Bee\artifacts\mvdfrm\UnityEditor.UI.ref.dll_4C98D3F7040CD4F5.mvfrm
Library\Bee\artifacts\mvdfrm\UnityEngine.UI.ref.dll_08FEAA520A2EFD60.mvfrm
Library\Bee\artifacts\mvdfrm\Unity.Plastic.Antlr3.Runtime.dll_4FDF94EC3D68544A.mvfrm
Library\Bee\artifacts\mvdfrm\Unity.Plastic.Newtonsoft.Json.dll_BAD91A3F5EDEB74B.mvfrm
Library\Bee\artifacts\mvdfrm\Unity.VisualScripting.IonicZip.dll_A9B46407B83C3005.mvfrm
Library\Bee\artifacts\mvdfrm\Unity.VisualScripting.YamlDotNet.dll_076D3304AC98BD07.mvfrm
Library\Bee\artifacts\mvdfrm\Unity.VisualScripting.TextureAssets.dll_9E8B5C586D661AFF.mvfrm
Library\Bee\artifacts\mvdfrm\Unity.VisualScripting.Antlr3.Runtime.dll_B8DA59E5DD61CD26.mvfrm
Library\Bee\artifacts\mvdfrm\UnityEditor.Graphs.dll_F83266244AF5814F.mvfrm
Library\Bee\artifacts\mvdfrm\UnityEditor.CoreModule.dll_307CA27D59CF541D.mvfrm
Library\Bee\artifacts\mvdfrm\UnityEditor.DeviceSimulatorModule.dll_B55117A5B9431F34.mvfrm
Library\Bee\artifacts\mvdfrm\UnityEditor.DiagnosticsModule.dll_759A156623DA6482.mvfrm
Library\Bee\artifacts\mvdfrm\UnityEditor.dll_3C9DBDC031CD3AE8.mvfrm
Library\Bee\artifacts\mvdfrm\UnityEditor.GraphViewModule.dll_FD2422CB0B8F0C19.mvfrm
Library\Bee\artifacts\mvdfrm\UnityEditor.PackageManagerUIModule.dll_13AE30E3D99CCF39.mvfrm
Library\Bee\artifacts\mvdfrm\UnityEditor.QuickSearchModule.dll_00A996737CB160DB.mvfrm
Library\Bee\artifacts\mvdfrm\UnityEditor.SceneTemplateModule.dll_24749D76633A18BC.mvfrm
Library\Bee\artifacts\mvdfrm\UnityEditor.TextCoreFontEngineModule.dll_E6267AF34F5680FB.mvfrm
Library\Bee\artifacts\mvdfrm\UnityEditor.TextCoreTextEngineModule.dll_2E0EB164DEDA3A19.mvfrm
Library\Bee\artifacts\mvdfrm\UnityEditor.UIBuilderModule.dll_51ACCFE77E47854D.mvfrm
Library\Bee\artifacts\mvdfrm\UnityEditor.UIElementsModule.dll_037842F5EC250039.mvfrm
Library\Bee\artifacts\mvdfrm\UnityEditor.UIElementsSamplesModule.dll_EE127DBA9945E7C4.mvfrm
Library\Bee\artifacts\mvdfrm\UnityEditor.UIServiceModule.dll_8A9EE14A677ED567.mvfrm
Library\Bee\artifacts\mvdfrm\UnityEditor.UnityConnectModule.dll_6EADCDDAD4E91153.mvfrm
Library\Bee\artifacts\mvdfrm\UnityEngine.AccessibilityModule.dll_571A090D63B04059.mvfrm
Library\Bee\artifacts\mvdfrm\UnityEngine.AIModule.dll_10A6694BE8AE40D1.mvfrm
Library\Bee\artifacts\mvdfrm\UnityEngine.AndroidJNIModule.dll_81C12BC935446F0F.mvfrm
Library\Bee\artifacts\mvdfrm\UnityEngine.AnimationModule.dll_CBA99EF3E5EBE0BF.mvfrm
Library\Bee\artifacts\mvdfrm\UnityEngine.ARModule.dll_CA192E4F45CB9F9A.mvfrm
Library\Bee\artifacts\mvdfrm\UnityEngine.AssetBundleModule.dll_4492C964DF1815CD.mvfrm
Library\Bee\artifacts\mvdfrm\UnityEngine.AudioModule.dll_15FACF10C9DC79F1.mvfrm
Library\Bee\artifacts\mvdfrm\UnityEngine.ClothModule.dll_7CE32C0BA3F958D5.mvfrm
Library\Bee\artifacts\mvdfrm\UnityEngine.ClusterInputModule.dll_EE4A42F08670E419.mvfrm
Library\Bee\artifacts\mvdfrm\UnityEngine.ClusterRendererModule.dll_BAFDDA1728FE2CB8.mvfrm
Library\Bee\artifacts\mvdfrm\UnityEngine.CoreModule.dll_539D75D001D4BF48.mvfrm
Library\Bee\artifacts\mvdfrm\UnityEngine.CrashReportingModule.dll_D61850B97C0BAFE0.mvfrm
Library\Bee\artifacts\mvdfrm\UnityEngine.DirectorModule.dll_6A2ECA0D32089F65.mvfrm
Library\Bee\artifacts\mvdfrm\UnityEngine.dll_6F4204989040C7CD.mvfrm
Library\Bee\artifacts\mvdfrm\UnityEngine.DSPGraphModule.dll_6F802B76A4697086.mvfrm
Library\Bee\artifacts\mvdfrm\UnityEngine.GameCenterModule.dll_AC0E75E3FB856000.mvfrm
Library\Bee\artifacts\mvdfrm\UnityEngine.GIModule.dll_A8E2B259845D28EB.mvfrm
Library\Bee\artifacts\mvdfrm\UnityEngine.GridModule.dll_310E91BE1A29553F.mvfrm
Library\Bee\artifacts\mvdfrm\UnityEngine.HotReloadModule.dll_4CF25CF9C11EFC41.mvfrm
Library\Bee\artifacts\mvdfrm\UnityEngine.ImageConversionModule.dll_26EFD7C7AB22E4AC.mvfrm
Library\Bee\artifacts\mvdfrm\UnityEngine.IMGUIModule.dll_4E5A6E77900E0DD2.mvfrm
Library\Bee\artifacts\mvdfrm\UnityEngine.InputLegacyModule.dll_D5D7E4837709CBBE.mvfrm
Library\Bee\artifacts\mvdfrm\UnityEngine.InputModule.dll_7C7096C140149E95.mvfrm
Library\Bee\artifacts\mvdfrm\UnityEngine.JSONSerializeModule.dll_B731924962EBA0E3.mvfrm
Library\Bee\artifacts\mvdfrm\UnityEngine.LocalizationModule.dll_2C970D431DECD712.mvfrm
Library\Bee\artifacts\mvdfrm\UnityEngine.ParticleSystemModule.dll_292A9A05EA1D3B6E.mvfrm
Library\Bee\artifacts\mvdfrm\UnityEngine.PerformanceReportingModule.dll_F4CC84D3FC2D9C07.mvfrm
Library\Bee\artifacts\mvdfrm\UnityEngine.Physics2DModule.dll_184F8EE486E8D854.mvfrm
Library\Bee\artifacts\mvdfrm\UnityEngine.PhysicsModule.dll_45B92660B7B93CE2.mvfrm
Library\Bee\artifacts\mvdfrm\UnityEngine.ProfilerModule.dll_9C750343CB622672.mvfrm
Library\Bee\artifacts\mvdfrm\UnityEngine.RuntimeInitializeOnLoadManagerInitializerModule.dll_1C274CDC359CF11D.mvfrm
Library\Bee\artifacts\mvdfrm\UnityEngine.ScreenCaptureModule.dll_D1193FCE7757CD45.mvfrm
Library\Bee\artifacts\mvdfrm\UnityEngine.SharedInternalsModule.dll_AB01169D2250DFFC.mvfrm
Library\Bee\artifacts\mvdfrm\UnityEngine.SpriteMaskModule.dll_953AE8741CF4F57A.mvfrm
Library\Bee\artifacts\mvdfrm\UnityEngine.SpriteShapeModule.dll_5DF3F6BF94BA4DD7.mvfrm
Library\Bee\artifacts\mvdfrm\UnityEngine.StreamingModule.dll_803E8C44357397FD.mvfrm
Library\Bee\artifacts\mvdfrm\UnityEngine.SubstanceModule.dll_5CE9A08D80C6960B.mvfrm
Library\Bee\artifacts\mvdfrm\UnityEngine.SubsystemsModule.dll_FFE84ED5EB3CDD8D.mvfrm
Library\Bee\artifacts\mvdfrm\UnityEngine.TerrainModule.dll_5FFFA1CF8D7785D0.mvfrm
Library\Bee\artifacts\mvdfrm\UnityEngine.TerrainPhysicsModule.dll_29A542D9036035FB.mvfrm
Library\Bee\artifacts\mvdfrm\UnityEngine.TextCoreFontEngineModule.dll_6485F64662543FC6.mvfrm
Library\Bee\artifacts\mvdfrm\UnityEngine.TextCoreTextEngineModule.dll_AC6E2CB7F1D7F8E4.mvfrm
Library\Bee\artifacts\mvdfrm\UnityEngine.TextRenderingModule.dll_FA58B1D92E8F4D3A.mvfrm
Library\Bee\artifacts\mvdfrm\UnityEngine.TilemapModule.dll_FEFC0950A53466D9.mvfrm
Library\Bee\artifacts\mvdfrm\UnityEngine.TLSModule.dll_A6AB1F35E54E8536.mvfrm
Library\Bee\artifacts\mvdfrm\UnityEngine.UIElementsModule.dll_0426B03DEE691984.mvfrm
Library\Bee\artifacts\mvdfrm\UnityEngine.UIElementsNativeModule.dll_5E27E5794B153F5B.mvfrm
Library\Bee\artifacts\mvdfrm\UnityEngine.UIModule.dll_0C1A077944F5467D.mvfrm
Library\Bee\artifacts\mvdfrm\UnityEngine.UmbraModule.dll_90CF7B2957032564.mvfrm
Library\Bee\artifacts\mvdfrm\UnityEngine.UNETModule.dll_E643BDB94EE3B4C1.mvfrm
Library\Bee\artifacts\mvdfrm\UnityEngine.UnityAnalyticsModule.dll_48CA0ACF96448D6A.mvfrm
Library\Bee\artifacts\mvdfrm\UnityEngine.UnityConnectModule.dll_5C0D51E9CF7111FE.mvfrm
Library\Bee\artifacts\mvdfrm\UnityEngine.UnityCurlModule.dll_FEC6402555FFD2AC.mvfrm
Library\Bee\artifacts\mvdfrm\UnityEngine.UnityTestProtocolModule.dll_A9D533ACF3413D1A.mvfrm
Library\Bee\artifacts\mvdfrm\UnityEngine.UnityWebRequestAssetBundleModule.dll_4CA25FD1C87FAFBB.mvfrm
Library\Bee\artifacts\mvdfrm\UnityEngine.UnityWebRequestAudioModule.dll_6CC8D8B28298669F.mvfrm
Library\Bee\artifacts\mvdfrm\UnityEngine.UnityWebRequestModule.dll_388EDF71B6177F2B.mvfrm
Library\Bee\artifacts\mvdfrm\UnityEngine.UnityWebRequestTextureModule.dll_9439C6BDDB969654.mvfrm
Library\Bee\artifacts\mvdfrm\UnityEngine.UnityWebRequestWWWModule.dll_77307213E197B550.mvfrm
Library\Bee\artifacts\mvdfrm\UnityEngine.VehiclesModule.dll_E1F1C38CAC326F00.mvfrm
Library\Bee\artifacts\mvdfrm\UnityEngine.VFXModule.dll_2789B7A4BBBBEEA3.mvfrm
Library\Bee\artifacts\mvdfrm\UnityEngine.VideoModule.dll_3B04537B8C6E9596.mvfrm
Library\Bee\artifacts\mvdfrm\UnityEngine.VirtualTexturingModule.dll_82B499E823C3BFE6.mvfrm
Library\Bee\artifacts\mvdfrm\UnityEngine.VRModule.dll_5EEC2DFEE6AFCBF5.mvfrm
Library\Bee\artifacts\mvdfrm\UnityEngine.WindModule.dll_C9EC50F8930B3DB1.mvfrm
Library\Bee\artifacts\mvdfrm\UnityEngine.XRModule.dll_91AAF1036FEA1953.mvfrm
Library\Bee\artifacts\mvdfrm\UnityEditor.WindowsStandalone.Extensions.dll_FF0F6345AD9D1453.mvfrm